{
  "is_class": true, 
  "library": "sklearn", 
  "common_name": "RBF Sampler", 
  "compute_resources": {}, 
  "id": "1be08330-2396-345b-ad6e-427871786a4b", 
  "category": "kernel_approximation", 
  "source_code_unanalyzed": "https://github.com/scikit-learn/scikit-learn/blob/0.18.X/sklearn/kernel_approximation.py#L24", 
  "parameters": [
    {
      "type": "float", 
      "name": "gamma", 
      "description": "Parameter of RBF kernel: exp(-gamma * x^2) "
    }, 
    {
      "type": "int", 
      "name": "n_components", 
      "description": "Number of Monte Carlo samples per original feature. Equals the dimensionality of the computed feature space. "
    }, 
    {
      "type": "int, RandomState", 
      "optional": "true", 
      "name": "random_state", 
      "description": "If int, random_state is the seed used by the random number generator; if RandomState instance, random_state is the random number generator. "
    }
  ], 
  "tags": [
    "kernel_approximation"
  ], 
  "common_name_unanalyzed": "RBF Sampler", 
  "schema_version": 1.0, 
  "languages": [
    "python2.7"
  ], 
  "version": "0.18.1", 
  "build": [
    {
      "type": "pip", 
      "package": "scikit-learn"
    }
  ], 
  "description": "'Approximates feature map of an RBF kernel by Monte Carlo approximation\nof its Fourier transform.\n\nIt implements a variant of Random Kitchen Sinks.[1]\n\nRead more in the :ref:`User Guide <rbf_kernel_approx>`.\n", 
  "methods_available": [
    {
      "id": "sklearn.kernel_approximation.RBFSampler.fit", 
      "returns": {
        "type": "object", 
        "name": "self", 
        "description": "Returns the transformer. '"
      }, 
      "description": "'Fit the model with X.\n\nSamples random projection according to n_features.\n", 
      "parameters": [
        {
          "shape": "n_samples, n_features", 
          "type": "array-like, sparse matrix", 
          "name": "X", 
          "description": "Training data, where n_samples in the number of samples and n_features is the number of features. "
        }
      ], 
      "name": "fit"
    }, 
    {
      "id": "sklearn.kernel_approximation.RBFSampler.fit_transform", 
      "returns": {
        "shape": "n_samples, n_features_new", 
        "type": "numpy", 
        "name": "X_new", 
        "description": "Transformed array.  '"
      }, 
      "description": "'Fit to data, then transform it.\n\nFits transformer to X and y with optional parameters fit_params\nand returns a transformed version of X.\n", 
      "parameters": [
        {
          "shape": "n_samples, n_features", 
          "type": "numpy", 
          "name": "X", 
          "description": "Training set. "
        }, 
        {
          "shape": "n_samples", 
          "type": "numpy", 
          "name": "y", 
          "description": "Target values. "
        }
      ], 
      "name": "fit_transform"
    }, 
    {
      "id": "sklearn.kernel_approximation.RBFSampler.get_params", 
      "returns": {
        "type": "mapping", 
        "name": "params", 
        "description": "Parameter names mapped to their values. '"
      }, 
      "description": "'Get parameters for this estimator.\n", 
      "parameters": [
        {
          "type": "boolean", 
          "optional": "true", 
          "name": "deep", 
          "description": "If True, will return the parameters for this estimator and contained subobjects that are estimators. "
        }
      ], 
      "name": "get_params"
    }, 
    {
      "id": "sklearn.kernel_approximation.RBFSampler.set_params", 
      "returns": {
        "name": "self", 
        "description": "\""
      }, 
      "description": "\"Set the parameters of this estimator.\n\nThe method works on simple estimators as well as on nested objects\n(such as pipelines). The latter have parameters of the form\n``<component>__<parameter>`` so that it's possible to update each\ncomponent of a nested object.\n", 
      "parameters": [], 
      "name": "set_params"
    }, 
    {
      "id": "sklearn.kernel_approximation.RBFSampler.transform", 
      "returns": {
        "shape": "n_samples, n_components", 
        "type": "array-like", 
        "name": "X_new", 
        "description": "'"
      }, 
      "description": "'Apply the approximate feature map to X.\n", 
      "parameters": [
        {
          "shape": "n_samples, n_features", 
          "type": "array-like, sparse matrix", 
          "name": "X", 
          "description": "New data, where n_samples in the number of samples and n_features is the number of features. "
        }
      ], 
      "name": "transform"
    }
  ], 
  "source_code": "https://github.com/scikit-learn/scikit-learn/blob/0.18.X/sklearn/kernel_approximation.py#L24", 
  "category_unanalyzed": "kernel_approximation", 
  "name": "sklearn.kernel_approximation.RBFSampler", 
  "team": "jpl", 
  "attributes": []
}